<?xml version="1.0" encoding="UTF-8" standalone="no"?>
<!-- Created with Inkscape (http://www.inkscape.org/) -->

<svg
   xmlns:dc="http://purl.org/dc/elements/1.1/"
   xmlns:cc="http://creativecommons.org/ns#"
   xmlns:rdf="http://www.w3.org/1999/02/22-rdf-syntax-ns#"
   xmlns:svg="http://www.w3.org/2000/svg"
   xmlns="http://www.w3.org/2000/svg"
   xmlns:sodipodi="http://sodipodi.sourceforge.net/DTD/sodipodi-0.dtd"
   xmlns:inkscape="http://www.inkscape.org/namespaces/inkscape"
   width="40"
   height="34"
   viewBox="0 0 40 34"
   version="1.1"
   id="svg8"
   inkscape:version="0.92.5 (2060ec1f9f, 2020-04-08)"
   sodipodi:docname="maximize-toggled-inactive.svg">
  <defs
     id="defs2" />
  <sodipodi:namedview
     id="base"
     pagecolor="#ffffff"
     bordercolor="#666666"
     borderopacity="1.0"
     inkscape:pageopacity="0.0"
     inkscape:pageshadow="2"
     inkscape:zoom="15.839192"
     inkscape:cx="14.937471"
     inkscape:cy="15.409709"
     inkscape:document-units="px"
     inkscape:current-layer="layer1"
     showgrid="false"
     inkscape:pagecheckerboard="true"
     units="px"
     inkscape:window-width="1569"
     inkscape:window-height="831"
     inkscape:window-x="345"
     inkscape:window-y="212"
     inkscape:window-maximized="0" />
  <metadata
     id="metadata5">
    <rdf:RDF>
      <cc:Work
         rdf:about="">
        <dc:format>image/svg+xml</dc:format>
        <dc:type
           rdf:resource="http://purl.org/dc/dcmitype/StillImage" />
        <dc:title />
      </cc:Work>
    </rdf:RDF>
  </metadata>
  <g
     inkscape:label="Capa 1"
     inkscape:groupmode="layer"
     id="layer1"
     transform="translate(0,-285.0625)">
    <g
       id="g834">
      <rect
         y="291.0625"
         x="0"
         height="22"
         width="40"
         id="rect815"
         style="fill:#2D3033;fill-opacity:1;fill-rule:evenodd;stroke:none;stroke-width:0.99047869;stroke-opacity:1" />
      <g
         id="g833">
        <rect
           style="opacity:1;fill:#a1a1a1;fill-opacity:1;stroke:#a1a1a1;stroke-width:0.40000001;stroke-miterlimit:4;stroke-dasharray:none;stroke-opacity:1"
           id="rect825"
           width="3"
           height="2"
           x="23"
           y="301.0625" />
        <rect
           style="opacity:1;fill:#a1a1a1;fill-opacity:1;stroke:#a1a1a1;stroke-width:0.40000001;stroke-miterlimit:4;stroke-dasharray:none;stroke-opacity:1"
           id="rect825-3"
           width="3"
           height="2"
           x="14"
           y="301.0625" />
        <rect
           style="opacity:1;fill:#a1a1a1;fill-opacity:1;stroke:#a1a1a1;stroke-width:0.40000001;stroke-miterlimit:4;stroke-dasharray:none;stroke-opacity:1"
           id="rect825-6"
           width="3"
           height="2"
           x="296.0625"
           y="-21"
           transform="rotate(90)" />
        <rect
           style="opacity:1;fill:#a1a1a1;fill-opacity:1;stroke:#a1a1a1;stroke-width:0.40000001;stroke-miterlimit:4;stroke-dasharray:none;stroke-opacity:1"
           id="rect825-7"
           width="3"
           height="2"
           x="305.0625"
           y="-21"
           transform="rotate(90)" />
      </g>
    </g>
  </g>
</svg>
