<?xml version="1.0" encoding="UTF-8" standalone="no"?>
<!-- Generator: Adobe Illustrator 19.0.0, SVG Export Plug-In . SVG Version: 6.00 Build 0)  -->

<svg
   xmlns:dc="http://purl.org/dc/elements/1.1/"
   xmlns:cc="http://creativecommons.org/ns#"
   xmlns:rdf="http://www.w3.org/1999/02/22-rdf-syntax-ns#"
   xmlns:svg="http://www.w3.org/2000/svg"
   xmlns="http://www.w3.org/2000/svg"
   xmlns:sodipodi="http://sodipodi.sourceforge.net/DTD/sodipodi-0.dtd"
   xmlns:inkscape="http://www.inkscape.org/namespaces/inkscape"
   version="1.1"
   id="Capa_1"
   x="0px"
   y="0px"
   viewBox="0 0 12 12"
   xml:space="preserve"
   sodipodi:docname="arrow-up-prelight.svg"
   width="20"
   height="20"
   inkscape:version="0.92.5 (2060ec1f9f, 2020-04-08)"><metadata
     id="metadata39"><rdf:RDF><cc:Work
         rdf:about=""><dc:format>image/svg+xml</dc:format><dc:type
           rdf:resource="http://purl.org/dc/dcmitype/StillImage" /><dc:title /></cc:Work></rdf:RDF></metadata><defs
     id="defs37" /><sodipodi:namedview
     pagecolor="#ffffff"
     bordercolor="#666666"
     borderopacity="1"
     objecttolerance="10"
     gridtolerance="10"
     guidetolerance="10"
     inkscape:pageopacity="0"
     inkscape:pageshadow="2"
     inkscape:window-width="1472"
     inkscape:window-height="847"
     id="namedview35"
     showgrid="false"
     inkscape:pagecheckerboard="true"
     inkscape:zoom="44.953451"
     inkscape:cx="6.0703421"
     inkscape:cy="5.8282512"
     inkscape:window-x="401"
     inkscape:window-y="108"
     inkscape:window-maximized="0"
     inkscape:current-layer="Capa_1" /><g
     id="g854"><rect
       y="0"
       x="0"
       height="20"
       width="20"
       id="rect827-3"
       style="opacity:1;fill:#2d3033;fill-opacity:1;stroke:none;stroke-width:1;stroke-miterlimit:4;stroke-dasharray:none;stroke-opacity:1" /><g
       style="fill:#00ff00;fill-opacity:1"
       id="g876"><g
         style="fill:#00ff00;fill-opacity:1"
         id="g4"
         transform="translate(0,-29.999001)" /><g
         style="fill:#00ff00;fill-opacity:1"
         id="g6"
         transform="translate(0,-29.999001)" /><g
         style="fill:#00ff00;fill-opacity:1"
         id="g8"
         transform="translate(0,-29.999001)" /><g
         style="fill:#00ff00;fill-opacity:1"
         id="g10"
         transform="translate(0,-29.999001)" /><g
         style="fill:#00ff00;fill-opacity:1"
         id="g12"
         transform="translate(0,-29.999001)" /><g
         style="fill:#00ff00;fill-opacity:1"
         id="g14"
         transform="translate(0,-29.999001)" /><g
         style="fill:#00ff00;fill-opacity:1"
         id="g16"
         transform="translate(0,-29.999001)" /><g
         style="fill:#00ff00;fill-opacity:1"
         id="g18"
         transform="translate(0,-29.999001)" /><g
         style="fill:#00ff00;fill-opacity:1"
         id="g20"
         transform="translate(0,-29.999001)" /><g
         style="fill:#00ff00;fill-opacity:1"
         id="g22"
         transform="translate(0,-29.999001)" /><g
         style="fill:#00ff00;fill-opacity:1"
         id="g24"
         transform="translate(0,-29.999001)" /><g
         style="fill:#00ff00;fill-opacity:1"
         id="g26"
         transform="translate(0,-29.999001)" /><g
         style="fill:#00ff00;fill-opacity:1"
         id="g28"
         transform="translate(0,-29.999001)" /><g
         style="fill:#00ff00;fill-opacity:1"
         id="g30"
         transform="translate(0,-29.999001)" /><g
         style="fill:#00ff00;fill-opacity:1"
         id="g32"
         transform="translate(0,-29.999001)" /><rect
         style="opacity:1;fill:#00ff00;fill-opacity:1;stroke:none;stroke-width:1.11803401;stroke-miterlimit:4;stroke-dasharray:none;stroke-opacity:1"
         id="rect827"
         width="2"
         height="10"
         x="5"
         y="2" /><rect
         style="opacity:1;fill:#00ff00;fill-opacity:1;stroke:none;stroke-width:1.11803401;stroke-miterlimit:4;stroke-dasharray:none;stroke-opacity:1"
         id="rect827-6"
         width="2"
         height="10"
         x="6"
         y="-11"
         transform="rotate(90)" /></g></g></svg>