<?xml version="1.0" encoding="UTF-8" standalone="no"?>
<!-- Generator: Adobe Illustrator 19.0.0, SVG Export Plug-In . SVG Version: 6.00 Build 0)  -->

<svg
   xmlns:dc="http://purl.org/dc/elements/1.1/"
   xmlns:cc="http://creativecommons.org/ns#"
   xmlns:rdf="http://www.w3.org/1999/02/22-rdf-syntax-ns#"
   xmlns:svg="http://www.w3.org/2000/svg"
   xmlns="http://www.w3.org/2000/svg"
   xmlns:sodipodi="http://sodipodi.sourceforge.net/DTD/sodipodi-0.dtd"
   xmlns:inkscape="http://www.inkscape.org/namespaces/inkscape"
   version="1.1"
   id="Capa_1"
   x="0px"
   y="0px"
   viewBox="0 0 12 12"
   xml:space="preserve"
   sodipodi:docname="arrow-down-insensitive.svg"
   width="20"
   height="20"
   inkscape:version="0.92.5 (2060ec1f9f, 2020-04-08)"><metadata
     id="metadata39"><rdf:RDF><cc:Work
         rdf:about=""><dc:format>image/svg+xml</dc:format><dc:type
           rdf:resource="http://purl.org/dc/dcmitype/StillImage" /><dc:title /></cc:Work></rdf:RDF></metadata><defs
     id="defs37" /><sodipodi:namedview
     pagecolor="#ffffff"
     bordercolor="#666666"
     borderopacity="1"
     objecttolerance="10"
     gridtolerance="10"
     guidetolerance="10"
     inkscape:pageopacity="0"
     inkscape:pageshadow="2"
     inkscape:window-width="1472"
     inkscape:window-height="847"
     id="namedview35"
     showgrid="false"
     inkscape:pagecheckerboard="true"
     inkscape:zoom="44.953451"
     inkscape:cx="5.6814541"
     inkscape:cy="5.8282512"
     inkscape:window-x="444"
     inkscape:window-y="197"
     inkscape:window-maximized="0"
     inkscape:current-layer="Capa_1" /><g
     id="g863"><rect
       y="0"
       x="0"
       height="20"
       width="20"
       id="rect827"
       style="opacity:1;fill:#2d3033;fill-opacity:1;stroke:none;stroke-width:1;stroke-miterlimit:4;stroke-dasharray:none;stroke-opacity:1" /><g
       transform="translate(0,-31.999001)"
       id="g4"
       style="fill:#808080" /><g
       transform="translate(0,-31.999001)"
       id="g6"
       style="fill:#808080" /><g
       transform="translate(0,-31.999001)"
       id="g8"
       style="fill:#808080" /><g
       transform="translate(0,-31.999001)"
       id="g10"
       style="fill:#808080" /><g
       transform="translate(0,-31.999001)"
       id="g12"
       style="fill:#808080" /><g
       transform="translate(0,-31.999001)"
       id="g14"
       style="fill:#808080" /><g
       transform="translate(0,-31.999001)"
       id="g16"
       style="fill:#808080" /><g
       transform="translate(0,-31.999001)"
       id="g18"
       style="fill:#808080" /><g
       transform="translate(0,-31.999001)"
       id="g20"
       style="fill:#808080" /><g
       transform="translate(0,-31.999001)"
       id="g22"
       style="fill:#808080" /><g
       transform="translate(0,-31.999001)"
       id="g24"
       style="fill:#808080" /><g
       transform="translate(0,-31.999001)"
       id="g26"
       style="fill:#808080" /><g
       transform="translate(0,-31.999001)"
       id="g28"
       style="fill:#808080" /><g
       transform="translate(0,-31.999001)"
       id="g30"
       style="fill:#808080" /><g
       transform="translate(0,-31.999001)"
       id="g32"
       style="fill:#808080" /><rect
       transform="rotate(90)"
       y="-11"
       x="2"
       height="10"
       width="2"
       id="rect827-6"
       style="opacity:1;fill:#999999;fill-opacity:1;stroke:none;stroke-width:1.11803401;stroke-miterlimit:4;stroke-dasharray:none;stroke-opacity:1" /></g></svg>