<?xml version="1.0" encoding="UTF-8" standalone="no"?>
<!-- Created with Inkscape (http://www.inkscape.org/) -->

<svg
   xmlns:dc="http://purl.org/dc/elements/1.1/"
   xmlns:cc="http://creativecommons.org/ns#"
   xmlns:rdf="http://www.w3.org/1999/02/22-rdf-syntax-ns#"
   xmlns:svg="http://www.w3.org/2000/svg"
   xmlns="http://www.w3.org/2000/svg"
   xmlns:sodipodi="http://sodipodi.sourceforge.net/DTD/sodipodi-0.dtd"
   xmlns:inkscape="http://www.inkscape.org/namespaces/inkscape"
   width="40"
   height="40"
   viewBox="0 0 40 40"
   version="1.1"
   id="svg8"
   inkscape:version="0.92.5 (2060ec1f9f, 2020-04-08)"
   sodipodi:docname="entry-error-active.svg">
  <defs
     id="defs2" />
  <sodipodi:namedview
     id="base"
     pagecolor="#ffffff"
     bordercolor="#666666"
     borderopacity="1.0"
     inkscape:pageopacity="0.0"
     inkscape:pageshadow="2"
     inkscape:zoom="15.839192"
     inkscape:cx="25.572935"
     inkscape:cy="10.614938"
     inkscape:document-units="px"
     inkscape:current-layer="layer1"
     showgrid="false"
     units="px"
     inkscape:pagecheckerboard="true"
     inkscape:window-width="1477"
     inkscape:window-height="885"
     inkscape:window-x="433"
     inkscape:window-y="156"
     inkscape:window-maximized="0" />
  <metadata
     id="metadata5">
    <rdf:RDF>
      <cc:Work
         rdf:about="">
        <dc:format>image/svg+xml</dc:format>
        <dc:type
           rdf:resource="http://purl.org/dc/dcmitype/StillImage" />
        <dc:title />
      </cc:Work>
    </rdf:RDF>
  </metadata>
  <g
     inkscape:label="Capa 1"
     inkscape:groupmode="layer"
     id="layer1"
     transform="translate(0,-277.59165)">
    <g
       id="g825">
      <rect
         y="277.59164"
         x="0"
         height="40"
         width="40"
         id="rect823"
         style="opacity:1;fill:#2d3033;fill-opacity:1;stroke:none;stroke-width:1.19522858;stroke-miterlimit:4;stroke-dasharray:none;stroke-opacity:1" />
      <rect
         y="314.59164"
         x="0"
         height="3"
         width="40"
         id="rect821"
         style="opacity:1;fill:#000000;fill-opacity:1;stroke:none;stroke-width:1.73205078;stroke-miterlimit:4;stroke-dasharray:none;stroke-opacity:1" />
      <rect
         y="316.59164"
         x="0"
         height="1"
         width="40"
         id="rect817"
         style="opacity:1;fill:#ff0000;fill-opacity:1;stroke:none;stroke-width:0.16012815;stroke-miterlimit:4;stroke-dasharray:none;stroke-opacity:1" />
      <rect
         y="314.59164"
         x="0"
         height="1"
         width="40"
         id="rect817-3"
         style="opacity:1;fill:#ff0000;fill-opacity:1;stroke:none;stroke-width:0.16012815;stroke-miterlimit:4;stroke-dasharray:none;stroke-opacity:1" />
    </g>
  </g>
</svg>
