<?xml version="1.0" encoding="UTF-8" standalone="no"?>
<!-- Generator: Adobe Illustrator 19.0.0, SVG Export Plug-In . SVG Version: 6.00 Build 0)  -->

<svg
   xmlns:dc="http://purl.org/dc/elements/1.1/"
   xmlns:cc="http://creativecommons.org/ns#"
   xmlns:rdf="http://www.w3.org/1999/02/22-rdf-syntax-ns#"
   xmlns:svg="http://www.w3.org/2000/svg"
   xmlns="http://www.w3.org/2000/svg"
   xmlns:sodipodi="http://sodipodi.sourceforge.net/DTD/sodipodi-0.dtd"
   xmlns:inkscape="http://www.inkscape.org/namespaces/inkscape"
   version="1.1"
   id="Capa_1"
   x="0px"
   y="0px"
   viewBox="0 0 11 11"
   xml:space="preserve"
   sodipodi:docname="menu-arrow-left-prelight.svg"
   width="11"
   height="11"
   inkscape:version="0.92.4 (5da689c313, 2019-01-14)"><metadata
     id="metadata39"><rdf:RDF><cc:Work
         rdf:about=""><dc:format>image/svg+xml</dc:format><dc:type
           rdf:resource="http://purl.org/dc/dcmitype/StillImage" /><dc:title /></cc:Work></rdf:RDF></metadata><defs
     id="defs37" /><sodipodi:namedview
     pagecolor="#ffffff"
     bordercolor="#666666"
     borderopacity="1"
     objecttolerance="10"
     gridtolerance="10"
     guidetolerance="10"
     inkscape:pageopacity="0"
     inkscape:pageshadow="2"
     inkscape:window-width="1573"
     inkscape:window-height="839"
     id="namedview35"
     showgrid="false"
     inkscape:pagecheckerboard="true"
     inkscape:zoom="44.953451"
     inkscape:cx="2.8236981"
     inkscape:cy="5.7615154"
     inkscape:window-x="337"
     inkscape:window-y="164"
     inkscape:window-maximized="0"
     inkscape:current-layer="Capa_1" /><g
     style="fill:#ffffff"
     id="g4"
     transform="translate(0,-30.999001)" /><g
     style="fill:#ffffff"
     id="g6"
     transform="translate(0,-30.999001)" /><g
     style="fill:#ffffff"
     id="g8"
     transform="translate(0,-30.999001)" /><g
     style="fill:#ffffff"
     id="g10"
     transform="translate(0,-30.999001)" /><g
     style="fill:#ffffff"
     id="g12"
     transform="translate(0,-30.999001)" /><g
     style="fill:#ffffff"
     id="g14"
     transform="translate(0,-30.999001)" /><g
     style="fill:#ffffff"
     id="g16"
     transform="translate(0,-30.999001)" /><g
     style="fill:#ffffff"
     id="g18"
     transform="translate(0,-30.999001)" /><g
     style="fill:#ffffff"
     id="g20"
     transform="translate(0,-30.999001)" /><g
     style="fill:#ffffff"
     id="g22"
     transform="translate(0,-30.999001)" /><g
     style="fill:#ffffff"
     id="g24"
     transform="translate(0,-30.999001)" /><g
     style="fill:#ffffff"
     id="g26"
     transform="translate(0,-30.999001)" /><g
     style="fill:#ffffff"
     id="g28"
     transform="translate(0,-30.999001)" /><g
     style="fill:#ffffff"
     id="g30"
     transform="translate(0,-30.999001)" /><g
     style="fill:#ffffff"
     id="g32"
     transform="translate(0,-30.999001)" /><path
     d="m 0.7365316,5.6896301 9.1677986,4.6644889 c 0.097049,0.04922 0.2228718,0.05434 0.3265618,0.01445 0.104002,-0.04035 0.169132,-0.119647 0.169132,-0.206404 V 0.83320058 c 0,-0.0867618 -0.06512,-0.16628961 -0.169132,-0.20663691 -0.04616,-0.0177296 -0.09673,-0.0265876 -0.146992,-0.0265876 -0.06291,0 -0.1255007,0.0139967 -0.1795618,0.0412807 L 0.7365386,5.3057421 c -0.08567,0.043612 -0.136563,0.1152141 -0.136563,0.1919448 0,0.076729 0.0512,0.1483305 0.136563,0.1919431 z"
     id="path2"
     inkscape:connector-curvature="0"
     style="fill:#00ff00;fill-opacity:1;stroke:#000000;stroke-width:1.19995117;stroke-miterlimit:4;stroke-dasharray:none;stroke-opacity:1" /></svg>