<?xml version="1.0" encoding="UTF-8" standalone="no"?>
<!-- Generator: Adobe Illustrator 13.0.2, SVG Export Plug-In . SVG Version: 6.00 Build 14948)  -->

<svg
   xmlns:dc="http://purl.org/dc/elements/1.1/"
   xmlns:cc="http://creativecommons.org/ns#"
   xmlns:rdf="http://www.w3.org/1999/02/22-rdf-syntax-ns#"
   xmlns:svg="http://www.w3.org/2000/svg"
   xmlns="http://www.w3.org/2000/svg"
   xmlns:xlink="http://www.w3.org/1999/xlink"
   xmlns:sodipodi="http://sodipodi.sourceforge.net/DTD/sodipodi-0.dtd"
   xmlns:inkscape="http://www.inkscape.org/namespaces/inkscape"
   version="1.0"
   id="Foreground"
   x="0px"
   y="0px"
   width="24"
   height="24"
   viewBox="0 0 24 24"
   enable-background="new 0 0 16 16"
   xml:space="preserve"
   sodipodi:version="0.32"
   inkscape:version="0.92.3 (2405546, 2018-03-11)"
   sodipodi:docname="close-window-hover.svg"
   inkscape:output_extension="org.inkscape.output.svg.inkscape"><metadata
     id="metadata2399"><rdf:RDF><cc:Work
         rdf:about=""><dc:format>image/svg+xml</dc:format><dc:type
           rdf:resource="http://purl.org/dc/dcmitype/StillImage" /><dc:title /></cc:Work></rdf:RDF></metadata><defs
     id="defs2397"><linearGradient
       id="linearGradient3173"><stop
         style="stop-color:#c4c4c4;stop-opacity:1;"
         offset="0"
         id="stop3175" /><stop
         style="stop-color:#ffffff;stop-opacity:1;"
         offset="1"
         id="stop3177" /></linearGradient><inkscape:perspective
       sodipodi:type="inkscape:persp3d"
       inkscape:vp_x="0 : 11 : 1"
       inkscape:vp_y="0 : 1375 : 0"
       inkscape:vp_z="22 : 11 : 1"
       inkscape:persp3d-origin="11 : 7.3333334 : 1"
       id="perspective2401" /><linearGradient
       inkscape:collect="always"
       xlink:href="#linearGradient1564-9"
       id="linearGradient5169"
       gradientUnits="userSpaceOnUse"
       x1="11.000001"
       y1="1.4999999"
       x2="11.000001"
       y2="20.5"
       gradientTransform="matrix(1.0526315,0,0,1.0526316,-0.57894749,-0.57894721)" /><inkscape:perspective
       id="perspective2401-5"
       inkscape:persp3d-origin="11 : 7.3333334 : 1"
       inkscape:vp_z="22 : 11 : 1"
       inkscape:vp_y="0 : 1375 : 0"
       inkscape:vp_x="0 : 11 : 1"
       sodipodi:type="inkscape:persp3d" /><inkscape:perspective
       id="perspective2401-6"
       inkscape:persp3d-origin="11 : 7.3333334 : 1"
       inkscape:vp_z="22 : 11 : 1"
       inkscape:vp_y="0 : 1375 : 0"
       inkscape:vp_x="0 : 11 : 1"
       sodipodi:type="inkscape:persp3d" /><linearGradient
       inkscape:collect="always"
       id="linearGradient1564-9"><stop
         id="stop1558-1"
         offset="0"
         style="stop-color:#dd4c54;stop-opacity:1" /><stop
         style="stop-color:#dc4850;stop-opacity:1"
         offset="0.69999999"
         id="stop829-2" /><stop
         id="stop1562-7"
         offset="1"
         style="stop-color:#d93b43;stop-opacity:1" /></linearGradient><inkscape:perspective
       sodipodi:type="inkscape:persp3d"
       inkscape:vp_x="0 : 11 : 1"
       inkscape:vp_y="0 : 1375 : 0"
       inkscape:vp_z="22 : 11 : 1"
       inkscape:persp3d-origin="11 : 7.3333334 : 1"
       id="perspective2401-5-0" /></defs><sodipodi:namedview
     inkscape:window-height="661"
     inkscape:window-width="1366"
     inkscape:pageshadow="2"
     inkscape:pageopacity="0"
     guidetolerance="10.0"
     gridtolerance="10.0"
     objecttolerance="10.0"
     borderopacity="1.0"
     bordercolor="#666666"
     pagecolor="#797979"
     id="base"
     showgrid="true"
     inkscape:zoom="16.47073"
     inkscape:cx="3.1938463"
     inkscape:cy="14.09441"
     inkscape:window-x="0"
     inkscape:window-y="27"
     inkscape:current-layer="Foreground"
     showguides="true"
     inkscape:guide-bbox="true"
     borderlayer="true"
     inkscape:showpageshadow="false"
     inkscape:window-maximized="1"
     inkscape:document-rotation="0"
     inkscape:snap-nodes="true"
     inkscape:snap-bbox="true"
     inkscape:bbox-nodes="true"
     inkscape:snap-bbox-edge-midpoints="true"><inkscape:grid
       type="xygrid"
       id="grid11246"
       empspacing="32"
       visible="true"
       enabled="true"
       snapvisiblegridlinesonly="true" /></sodipodi:namedview><rect
     ry="0"
     rx="0"
     y="-1"
     x="-1"
     height="26"
     width="26"
     id="rect5356-6"
     style="color:#000000;display:inline;overflow:visible;visibility:visible;fill:none;fill-opacity:1;fill-rule:nonzero;stroke:none;stroke-width:2;marker:none;enable-background:accumulate" /><g
     id="g5358-2"
     transform="translate(1.0000005,1.0000001)"><rect
       ry="19"
       rx="19"
       y="1"
       x="1"
       height="20"
       width="20"
       id="rect5360-6"
       style="color:#000000;display:inline;overflow:visible;visibility:visible;fill:url(#linearGradient5169);fill-opacity:1.0;stroke:none;stroke-width:1;marker:none;enable-background:accumulate" /><rect
       ry="19.000002"
       rx="19.000002"
       y="0.50000012"
       x="0.49999988"
       height="21"
       width="21"
       id="rect5365-1"
       style="color:#000000;display:inline;overflow:visible;visibility:visible;opacity:1;fill:none;stroke:#931c22;stroke-width:0.99999976;stroke-miterlimit:4;stroke-dasharray:none;stroke-opacity:1;marker:none;enable-background:accumulate" /></g><path
     d="M 8.0031422,9.0002343 H 9.002749 c 0.01034,-1.2e-4 0.02077,-4.608e-4 0.03124,0 0.254851,0.01121 0.50967,0.128577 0.68723,0.312491 l 2.280354,2.2811827 2.31159,-2.2811827 c 0.265521,-0.230494 0.446498,-0.305492 0.68723,-0.312491 H 16 v 0.9999707 c 0,0.286462 -0.03432,0.550633 -0.249901,0.749978 l -2.280353,2.281183 2.249116,2.249934 C 15.906976,15.469465 15.999993,15.734737 16,16.00003 V 17 h -0.999611 c -0.265196,-10e-6 -0.530376,-0.0931 -0.718467,-0.281242 L 12.001568,14.437574 9.721214,16.718758 C 9.533125,16.906942 9.267934,17 9.002748,17 H 8.0031442 v -0.99997 c -3e-6,-0.265282 0.09303,-0.530565 0.281139,-0.71873 L 10.564637,13.031366 8.2842832,10.750183 c -0.210659,-0.194625 -0.303041,-0.469237 -0.281139,-0.749978 z"
     inkscape:connector-curvature="0"
     id="path27279-0-5-3"
     style="color:#bebebe;font-style:normal;font-variant:normal;font-weight:normal;font-stretch:normal;font-size:medium;line-height:normal;font-family:'Andale Mono';-inkscape-font-specification:'Andale Mono';text-indent:0;text-align:start;text-decoration:none;text-decoration-line:none;letter-spacing:normal;word-spacing:normal;text-transform:none;writing-mode:lr-tb;direction:ltr;text-anchor:start;display:inline;overflow:visible;visibility:visible;opacity:0.7;fill:#000000;fill-opacity:1;fill-rule:nonzero;stroke:none;stroke-width:1.87958801;marker:none;enable-background:new"
     sodipodi:nodetypes="ccsccccccccccccccccccccccc" /><path
     d="M 8.0031422,8.0002345 H 9.002749 c 0.01034,-1.2e-4 0.02077,-4.61e-4 0.03124,0 0.254851,0.01121 0.50967,0.128577 0.68723,0.312491 l 2.280354,2.2811825 2.31159,-2.2811825 c 0.265521,-0.230494 0.446498,-0.305492 0.68723,-0.312491 H 16 v 0.9999708 c 0,0.286462 -0.03432,0.550633 -0.249901,0.749978 L 13.469746,12.031366 15.718862,14.2813 C 15.906976,14.469465 15.999993,14.734737 16,15.00003 V 16 h -0.999611 c -0.265196,-10e-6 -0.530376,-0.0931 -0.718467,-0.281242 L 12.001568,13.437574 9.721214,15.718758 C 9.533125,15.906942 9.267934,16 9.002748,16 H 8.0031442 v -0.99997 c -3e-6,-0.265282 0.09303,-0.530565 0.281139,-0.71873 L 10.564637,12.031366 8.2842832,9.7501833 c -0.210659,-0.194625 -0.303041,-0.469237 -0.281139,-0.749978 z"
     inkscape:connector-curvature="0"
     id="path27279-0-5"
     style="color:#bebebe;font-style:normal;font-variant:normal;font-weight:normal;font-stretch:normal;font-size:medium;line-height:normal;font-family:'Andale Mono';-inkscape-font-specification:'Andale Mono';text-indent:0;text-align:start;text-decoration:none;text-decoration-line:none;letter-spacing:normal;word-spacing:normal;text-transform:none;writing-mode:lr-tb;direction:ltr;text-anchor:start;display:inline;overflow:visible;visibility:visible;fill:#ffffff;fill-opacity:1;fill-rule:nonzero;stroke:none;stroke-width:1.87958801;marker:none;enable-background:new"
     sodipodi:nodetypes="ccsccccccccccccccccccccccc" /><rect
     ry="19.000002"
     rx="19.000002"
     y="2.5000005"
     x="2.5000029"
     height="19"
     width="19"
     id="rect5365-1-3"
     style="color:#000000;display:inline;overflow:visible;visibility:visible;opacity:0.05;fill:none;stroke:#fffffe;stroke-width:0.99999976;stroke-miterlimit:4;stroke-dasharray:none;stroke-opacity:1;marker:none;enable-background:accumulate" /><path
     style="opacity:0.25;fill:#ffffff;fill-opacity:1;stroke:none;stroke-width:1px;stroke-linecap:butt;stroke-linejoin:miter;stroke-opacity:1"
     d="m 2.0000002,12 c 0,-3.9999995 4,-8.9999996 9.9999998,-8.9999996 6,0 10,5.0000001 10,8.9999996 0,-4.9999995 -4,-9.9999995 -10,-9.9999995 -5.9999998,0 -9.9999998,5 -9.9999998,9.9999995 z"
     id="path833"
     inkscape:connector-curvature="0"
     sodipodi:nodetypes="ccccc" /><path
     style="opacity:0.1;fill:#ffffff;fill-opacity:1;stroke:none;stroke-width:1px;stroke-linecap:butt;stroke-linejoin:miter;stroke-opacity:1"
     d="m 22,12 c 0,4 -4,9 -10,9 -5.9999998,0 -9.9999998,-5 -9.9999998,-9 0,5 4,10 9.9999998,10 6,0 10,-5 10,-10 z"
     id="path833-3"
     inkscape:connector-curvature="0"
     sodipodi:nodetypes="ccccc" /></svg>